{
    "name": "Snake",
    "maps": [
        {
            "name": "Ingame",
            "id": "399188c9-bb84-4ca6-9e92-9cdb4048a35c",
            "actions": [
                {
                    "name": "DirectionalInput",
                    "type": "PassThrough",
                    "id": "976ead85-5c95-4c11-81e2-93f6e665fbc6",
                    "expectedControlType": "Vector2",
                    "processors": "",
                    "interactions": ""
                }
            ],
            "bindings": [
                {
                    "name": "",
                    "id": "8227b7a6-2061-4894-8107-89282b7dd7a0",
                    "path": "<Gamepad>/leftStick",
                    "interactions": "",
                    "processors": "",
                    "groups": "",
                    "action": "DirectionalInput",
                    "isComposite": false,
                    "isPartOfComposite": false
                },
                {
                    "name": "WASD",
                    "id": "173c7f6b-6e74-489d-839f-d86862f6aa15",
                    "path": "2DVector",
                    "interactions": "",
                    "processors": "",
                    "groups": "",
                    "action": "DirectionalInput",
                    "isComposite": true,
                    "isPartOfComposite": false
                },
                {
                    "name": "up",
                    "id": "2736ad14-069a-4edd-8ea2-e1d0925b324d",
                    "path": "<Keyboard>/w",
                    "interactions": "",
                    "processors": "",
                    "groups": "",
                    "action": "DirectionalInput",
                    "isComposite": false,
                    "isPartOfComposite": true
                },
                {
                    "name": "down",
                    "id": "c3e12e0e-9d5b-4f94-97a0-71da52719c8a",
                    "path": "<Keyboard>/s",
                    "interactions": "",
                    "processors": "",
                    "groups": "",
                    "action": "DirectionalInput",
                    "isComposite": false,
                    "isPartOfComposite": true
                },
                {
                    "name": "left",
                    "id": "77829253-6984-4cd0-a8bb-48f737b18f1c",
                    "path": "<Keyboard>/a",
                    "interactions": "",
                    "processors": "",
                    "groups": "",
                    "action": "DirectionalInput",
                    "isComposite": false,
                    "isPartOfComposite": true
                },
                {
                    "name": "right",
                    "id": "c125c2a4-1708-4a77-b886-b534ac85473f",
                    "path": "<Keyboard>/d",
                    "interactions": "",
                    "processors": "",
                    "groups": "",
                    "action": "DirectionalInput",
                    "isComposite": false,
                    "isPartOfComposite": true
                }
            ]
        },
        {
            "name": "Menu",
            "id": "bca6c030-73ac-4397-9742-d6f5e35101f8",
            "actions": [
                {
                    "name": "Pointer",
                    "type": "PassThrough",
                    "id": "d4dd42fa-4d85-4e7c-8e77-806d07fc1cac",
                    "expectedControlType": "Vector2",
                    "processors": "",
                    "interactions": ""
                },
                {
                    "name": "Select",
                    "type": "PassThrough",
                    "id": "4c22957e-bf15-409f-bbaf-e0be74429e18",
                    "expectedControlType": "Button",
                    "processors": "",
                    "interactions": ""
                },
                {
                    "name": "Exit",
                    "type": "PassThrough",
                    "id": "f94f83c6-ab77-41b1-878d-d6c1973373dc",
                    "expectedControlType": "Button",
                    "processors": "",
                    "interactions": ""
                },
                {
                    "name": "Scroll",
                    "type": "PassThrough",
                    "id": "7d967056-6079-4edb-94a9-789250ce0114",
                    "expectedControlType": "Vector2",
                    "processors": "",
                    "interactions": ""
                }
            ],
            "bindings": [
                {
                    "name": "",
                    "id": "1d82fd6f-d2fd-41f0-8569-fa5137ee7028",
                    "path": "<Gamepad>/rightStick",
                    "interactions": "",
                    "processors": "",
                    "groups": "",
                    "action": "Pointer",
                    "isComposite": false,
                    "isPartOfComposite": false
                },
                {
                    "name": "Arrow",
                    "id": "1e1ce3ed-1237-4d68-8bfb-8df1981cccef",
                    "path": "2DVector",
                    "interactions": "",
                    "processors": "",
                    "groups": "",
                    "action": "Pointer",
                    "isComposite": true,
                    "isPartOfComposite": false
                },
                {
                    "name": "up",
                    "id": "3265f41e-d2b2-49c0-b54d-c3a8379ad55c",
                    "path": "<Keyboard>/upArrow",
                    "interactions": "",
                    "processors": "",
                    "groups": "",
                    "action": "Pointer",
                    "isComposite": false,
                    "isPartOfComposite": true
                },
                {
                    "name": "down",
                    "id": "8a6fba75-327f-4797-ba24-4ceca0da167f",
                    "path": "<Keyboard>/downArrow",
                    "interactions": "",
                    "processors": "",
                    "groups": "",
                    "action": "Pointer",
                    "isComposite": false,
                    "isPartOfComposite": true
                },
                {
                    "name": "left",
                    "id": "33645563-2ea1-4450-a586-17becb650429",
                    "path": "<Keyboard>/leftArrow",
                    "interactions": "",
                    "processors": "",
                    "groups": "",
                    "action": "Pointer",
                    "isComposite": false,
                    "isPartOfComposite": true
                },
                {
                    "name": "right",
                    "id": "27dfbbf9-542d-47e0-a49e-8b56ba256955",
                    "path": "<Keyboard>/rightArrow",
                    "interactions": "",
                    "processors": "",
                    "groups": "",
                    "action": "Pointer",
                    "isComposite": false,
                    "isPartOfComposite": true
                },
                {
                    "name": "",
                    "id": "8206f6ad-a5d6-402d-a298-4f9575003a2d",
                    "path": "<Mouse>/position",
                    "interactions": "",
                    "processors": "",
                    "groups": "",
                    "action": "Pointer",
                    "isComposite": false,
                    "isPartOfComposite": false
                },
                {
                    "name": "",
                    "id": "7c1ae5f0-d73b-4089-a40e-3d072f0e2267",
                    "path": "<Keyboard>/escape",
                    "interactions": "",
                    "processors": "",
                    "groups": "",
                    "action": "Exit",
                    "isComposite": false,
                    "isPartOfComposite": false
                },
                {
                    "name": "",
                    "id": "1da865e8-f11e-43f2-8d97-9567a3502293",
                    "path": "<Mouse>/scroll",
                    "interactions": "",
                    "processors": "",
                    "groups": "",
                    "action": "Scroll",
                    "isComposite": false,
                    "isPartOfComposite": false
                },
                {
                    "name": "",
                    "id": "0253d6cb-298e-4607-927f-95afb43fe253",
                    "path": "<Keyboard>/enter",
                    "interactions": "",
                    "processors": "",
                    "groups": "",
                    "action": "SelectElement",
                    "isComposite": false,
                    "isPartOfComposite": false
                },
                {
                    "name": "",
                    "id": "0f017949-e120-4bd9-b59a-e17bb86db355",
                    "path": "<Gamepad>/buttonSouth",
                    "interactions": "",
                    "processors": "",
                    "groups": "",
                    "action": "Select",
                    "isComposite": false,
                    "isPartOfComposite": false
                },
                {
                    "name": "",
                    "id": "a18a6509-222c-496a-a84a-194e333c7969",
                    "path": "<Mouse>/leftButton",
                    "interactions": "",
                    "processors": "",
                    "groups": "",
                    "action": "Select",
                    "isComposite": false,
                    "isPartOfComposite": false
                },
                {
                    "name": "",
                    "id": "579c5419-6a81-4904-8eb4-37c78acdccf1",
                    "path": "",
                    "interactions": "",
                    "processors": "",
                    "groups": "",
                    "action": "Select",
                    "isComposite": false,
                    "isPartOfComposite": false
                }
            ]
        }
    ],
    "controlSchemes": []
}